<!DOCTYPE svg PUBLIC "-//W3C//DTD SVG 1.1//EN" "http://www.w3.org/Graphics/SVG/1.1/DTD/svg11.dtd">
<!-- Uploaded to: SVG Repo, www.svgrepo.com, Transformed by: SVG Repo Mixer Tools -->
<svg width="64px" height="64px" viewBox="0 0 24 24" fill="none" xmlns="http://www.w3.org/2000/svg">
<g id="SVGRepo_bgCarrier" stroke-width="0"/>
<g id="SVGRepo_tracerCarrier" stroke-linecap="round" stroke-linejoin="round"/>
<g id="SVGRepo_iconCarrier"> <path d="M20 10V7C20 5.89543 19.1046 5 18 5H6C4.89543 5 4 5.89543 4 7V10M20 10H4M20 10V10.75M4 10V19C4 20.1046 4.89543 21 6 21H12M8 3V7M16 3V7" stroke="#000000" stroke-width="2" stroke-linecap="round"/> <path d="M17.5356 14V17.5355M17.5356 21.0711V17.5355M17.5356 17.5355L21.0712 17.5355M17.5356 17.5355H14.0001" stroke="#000000" stroke-width="2" stroke-linecap="round"/> </g>
</svg>